Presentation Ninja
…
```r
rural <- sample(15:30, 12)
urbano <- sample(30:100, 12)
periurbano <- sample(15:70, 12)
data <- data.frame(rural, urbano, periurbano, fecha) %>% 
  pivot_longer(-fecha, 
               names_to = "uso_tierra", 
               values_to = "casos")
data
```

```
## # A tibble: 36 x 3
##    fecha      uso_tierra casos
##    <date>     <chr>      <int>
##  1 2018-04-01 rural         16
##  2 2018-04-01 urbano        78
##  3 2018-04-01 periurbano    20
##  4 2016-08-01 rural         23
##  5 2016-08-01 urbano        50
##  6 2016-08-01 periurbano    22
##  7 2019-10-01 rural         20
##  8 2019-10-01 urbano        83
##  9 2019-10-01 periurbano    41
## 10 2017-08-01 rural         24
## # ... with 26 more rows
```
…
---
layout: true

## Tables

---
exclude: false

```r
tibble::as_tibble(mtcars)
```

```
## # A tibble: 32 x 11
##      mpg   cyl  disp    hp  drat    wt  qsec    vs    am  gear  carb
##    <dbl> <dbl> <dbl> <dbl> <dbl> <dbl> <dbl> <dbl> <dbl> <dbl> <dbl>
##  1  21       6  160    110  3.9   2.62  16.5     0     1     4     4
##  2  21       6  160    110  3.9   2.88  17.0     0     1     4     4
##  3  22.8     4  108     93  3.85  2.32  18.6     1     1     4     1
##  4  21.4     6  258    110  3.08  3.22  19.4     1     0     3     1
##  5  18.7     8  360    175  3.15  3.44  17.0     0     0     3     2
##  6  18.1     6  225    105  2.76  3.46  20.2     1     0     3     1
##  7  14.3     8  360    245  3.21  3.57  15.8     0     0     3     4
##  8  24.4     4  147.    62  3.69  3.19  20       1     0     4     2
##  9  22.8     4  141.    95  3.92  3.15  22.9     1     0     4     2
## 10  19.2     6  168.   123  3.92  3.44  18.3     1     0     4     4
## # ... with 22 more rows
```
…
